…
Ergebnis ist eine Tabelle, die je Kommentar einen Wert zwischen 0 (negativ) und  1 (positiv) zuweist.


```r
sentiments
#> # A tibble: 2,357 x 2
#>        score    id
#>        <dbl> <chr>
#>  1 0.5619398     1
#>  2 0.9084251     2
#>  3 0.5422977     3
#>  4 0.5671694     4
#>  5 0.5663299     5
#>  6 0.5910998     6
#>  7 0.2581929     7
#>  8 0.6130945     8
#>  9 0.5544790     9
#> 10 0.7222222    10
#> # ... with 2,347 more rows
```
…
